<?xml  version="1.0" encoding="UTF-8"?>
<!DOCTYPE svg PUBLIC "-//W3C//DTD SVG 1.0//EN" "http://www.w3.org/TR/2001/REC-SVG-20010904/DTD/svg10.dtd" >
<svg xmlns="http://www.w3.org/2000/svg" >
<metadata>
<version>1.0</version>
<id><![CDATA[News Gothic W01 Bold]]></id>
<vendor>Monotype Imaging Inc.</vendor>
<credits>
<name>Fonts.com WebFonts</name>
<URL>http://webfonts.fonts.com</URL>
<role>Home of the Web fonts</role>
</credits>
<license>
<URL>http://webfonts.fonts.com/Legal</URL>
</license>
<copyright><![CDATA[Copyright © 1987, 1991, 2001 Adobe Systems Incorporated.  All Rights Reserved.]]></copyright>
<trademark><![CDATA[News Gothic]]></trademark>
<licensee>
<name></name>
</licensee>
</metadata>
<defs >
<font horiz-adv-x="469" id="db64de75-8a77-4996-b276-5453aba0b2c1">
<font-face font-family="News Gothic W01 Bold" panose-1="2 11 7 4 3 5 3 2 2 4" ascent="1040" descent="-250" units-per-em="1000" alphabetic="0">
</font-face>
<missing-glyph horiz-adv-x="311" />

<glyph unicode="&#xA;" />
<glyph unicode="&#xD;" />
<glyph unicode=" " horiz-adv-x="311" />
<glyph unicode="!" horiz-adv-x="247" d="M39 778H208L185 237H62L39 778ZM197 0H49V148H197V0Z"  />
<glyph unicode="&quot;" horiz-adv-x="474" d="M188 778V648L146 519H92L50 648V778H188ZM424 778V648L382 519H328L286 648V778H424Z"  />
<glyph unicode="#" horiz-adv-x="622" d="M349 778L308 560H408L450 778H556L514 560H586V449H495L472 329H558V218H449L407 0H301L343 218H242L200 0H94L136 218H36V329H157L182 449H77V560H202L243 778H349ZM263 329H365L390 449H288L263 329Z"  />
<glyph unicode="$" horiz-adv-x="622" d="M449 576Q426 610 397 630T325 651Q309 651 292 647T260 634T236 612T226 579Q226 549 252 527T319 485T405 444T492 393T558 323T585 223Q585 173 569 134T526 67T461 19T380 -9V-101H284V-9Q203 -1 140 41T37 154L159 227Q185 181 225 154T320 127Q339 127 360 131T398 145T426 170T438 210Q438 239 412 260T345 301T259 342T172 394T106 465T79 565Q79 611 95 649T138 715T203 762T284 787V879H380V787Q440 770 490 737T569 647L449 576Z"  />
<glyph unicode="%" horiz-adv-x="852" d="M656 389Q705 389 737 371T789 324T815 257T823 182Q823 145 814 110T785 48T733 5T656 -12Q611 -12 579 4T527 48T498 110T489 182Q489 220 496 257T523 323T574 371T656 389ZM656 299Q636 299 626 288T610 260T605 223T604 182Q604 164 605 146T612 112T627 88T656 78Q674 78 684 87T700 112T706 145T708 182Q708 202 708 222T702 260T687 288T656 299ZM196 790Q245 790 277 772T329 725T355 658T363 583Q363 546 354 511T325 449T273 406T196 389Q151 389 119 405T67 449T38 511T29 583Q29 621 36 658T63 724T114 772T196 790ZM196 700Q176 700 166 689T150 661T145 624T144 583Q144 565 145 547T152 513T167 489T196 479Q214 479 224 488T240 513T246 546T248 583Q248 603 248 623T242 661T227 689T196 700ZM670 778L276 0H182L576 778H670Z"  />
<glyph unicode="&amp;" horiz-adv-x="713" d="M313 111Q336 111 354 118T391 138Q345 180 305 222T238 306Q215 290 204 271T192 222Q192 198 202 178T229 142T268 119T313 111ZM177 415Q154 453 139 494T123 581Q123 622 135 659T172 726T233 772T317 790Q354 790 388 776T448 737T491 679T507 607Q507 569 496 537T466 476T421 424T365 380Q393 338 421 304T482 243Q504 275 516 307T537 372L662 344Q641 248 586 168Q615 151 645 144T706 134L698 -4Q644 -6 593 11T496 57Q451 20 401 4T294 -12Q248 -12 203 2T121 44T62 110T39 201Q39 235 48 264T73 317T111 363T160 403L177 415ZM294 480Q314 492 330 504T358 529T376 560T382 601Q382 627 366 650T321 673Q290 673 273 650T255 598Q255 562 266 537T294 480Z"  />
<glyph unicode="&apos;" horiz-adv-x="238" d="M188 778V648L146 519H92L50 648V778H188Z"  />
<glyph unicode="(" horiz-adv-x="329" d="M270 755Q255 707 240 657T211 550T190 430T182 293Q182 219 190 156T211 37T239 -70T270 -169L163 -204Q113 -88 86 39T59 293Q59 419 86 546T163 790L270 755Z"  />
<glyph unicode=")" horiz-adv-x="329" d="M166 790Q216 674 243 547T270 293Q270 167 243 40T166 -204L59 -169Q74 -121 89 -71T118 36T139 156T147 293Q147 367 139 430T118 549T90 656T59 755L166 790Z"  />
<glyph unicode="*" horiz-adv-x="622" d="M353 653L469 700L501 603L379 573L460 478L377 417L311 524L245 417L162 478L243 573L121 603L153 700L269 653L260 778H362L353 653Z"  />
<glyph unicode="+" horiz-adv-x="584" d="M350 493V301H534V192H350V0H235V192H50V301H235V493H350Z"  />
<glyph unicode="&#x2c;" horiz-adv-x="311" d="M230 6L145 -158L84 -132L133 0H82V148H230V6Z"  />
<glyph unicode="-" horiz-adv-x="341" d="M302 358V234H39V358H302Z"  />
<glyph unicode="." horiz-adv-x="311" d="M230 0H82V148H230V0Z"  />
<glyph unicode="/" horiz-adv-x="535" d="M587 778L57 -191H-52L478 778H587Z"  />
<glyph unicode="0" horiz-adv-x="622" d="M311 790Q377 790 430 765T521 688T579 561T600 382Q600 274 576 199T511 77T418 9T311 -12Q256 -12 204 9T112 77T47 199T22 382Q22 484 42 560T100 688T191 764T311 790ZM311 663Q261 663 234 633T193 558T178 466T175 382Q175 347 178 301T194 213T235 144T311 115Q360 115 387 143T427 213T444 300T447 382Q447 418 445 466T429 558T389 632T311 663Z"  />
<glyph unicode="1" horiz-adv-x="622" d="M389 123H509V0H113V123H233V633H113V718L277 778H389V123Z"  />
<glyph unicode="2" horiz-adv-x="622" d="M568 0H55V165Q116 241 179 295T294 393T377 478T410 570Q410 611 386 639T320 667Q290 667 269 656T235 627T214 584T202 534L55 560Q57 616 77 659T133 731T214 775T315 790Q381 790 429 772T508 722T555 650T570 563Q570 512 554 474T512 403T449 342T374 282T293 215T213 132H568V0Z"  />
<glyph unicode="3" horiz-adv-x="622" d="M213 463Q240 462 275 464T341 475T393 506T414 565Q414 607 389 637T321 667Q276 667 248 639T204 570L71 625Q106 703 171 746T324 790Q369 790 412 776T490 734T546 668T567 579Q567 547 559 522T535 478T498 442T449 413Q509 390 545 344T581 231Q581 174 560 129T501 53T416 5T316 -12Q268 -12 223 2T140 44T77 110T42 198L186 228Q201 176 232 144T321 111Q344 111 363 119T397 143T420 178T428 222Q428 264 407 289T353 329T283 347T213 350V463Z"  />
<glyph unicode="4" horiz-adv-x="622" d="M493 304H590V181H493V0H337V181H32V294L311 778H493V304ZM337 581H335L184 304H337V581Z"  />
<glyph unicode="5" horiz-adv-x="622" d="M507 646H195V484Q260 542 346 542Q401 542 444 520T519 460T566 375T583 276Q583 219 563 167T505 76T416 12T300 -12Q260 -12 220 -1T146 32T84 83T40 152L178 207Q192 168 221 140T296 111Q327 111 351 123T391 156T415 203T423 259Q423 287 416 314T393 363T355 397T300 410Q263 410 234 389T195 332L60 364L72 778H507V646Z"  />
<glyph unicode="6" horiz-adv-x="622" d="M445 587Q426 620 404 639T340 658Q304 658 279 640T237 593T212 532T205 468Q240 488 274 500T349 513Q385 513 426 499T502 455T561 377T584 264Q584 193 559 141T495 55T411 5T327 -12Q272 -12 220 9T128 77T63 199T38 382Q38 486 62 563T127 690T222 765T338 790Q374 790 408 780T473 752T529 709T574 654L445 587ZM200 322Q199 293 203 258T221 193T257 141T316 120Q346 120 367 131T403 160T424 204T431 256Q431 279 425 301T405 341T373 370T327 381Q288 381 258 365T200 322Z"  />
<glyph unicode="7" horiz-adv-x="622" d="M572 693L267 0H93L388 646H67V778H572V693Z"  />
<glyph unicode="8" horiz-adv-x="622" d="M322 470Q339 479 354 489T382 513T401 543T408 581Q408 597 401 611T380 637T348 655T308 662Q291 662 274 657T243 641T220 617T211 584Q211 561 221 543T248 512T284 488T322 470ZM307 346Q285 337 265 324T228 294T202 256T192 209Q192 189 201 172T226 143T263 123T307 116Q329 116 351 122T390 140T419 171T430 215Q430 241 419 262T391 299T351 326T307 346ZM451 409Q476 392 500 372T542 329T572 278T583 217Q583 184 569 145T522 70T437 12T307 -12Q239 -12 189 8T105 59T56 130T39 209Q39 242 49 272T78 328T121 374T175 409Q126 434 94 474T62 572Q62 622 83 662T138 730T216 774T307 790Q352 790 396 776T476 734T534 668T557 580Q557 551 549 527T526 482T492 443T451 409Z"  />
<glyph unicode="9" horiz-adv-x="622" d="M177 191Q196 158 218 139T282 120Q318 120 343 138T385 185T410 246T417 310Q382 290 348 278T273 265Q237 265 196 279T120 323T61 401T38 514Q38 585 63 637T127 723T211 773T295 790Q350 790 402 769T494 701T559 579T584 396Q584 292 560 215T495 88T400 13T284 -12Q248 -12 214 -2T149 26T93 69T48 124L177 191ZM422 456Q423 484 419 519T401 585T365 637T306 658Q276 658 255 647T219 618T198 574T191 522Q191 499 197 477T217 437T249 408T295 397Q334 397 364 413T422 456Z"  />
<glyph unicode=":" horiz-adv-x="311" d="M230 0H82V148H230V0ZM230 412H82V560H230V412Z"  />
<glyph unicode=";" horiz-adv-x="311" d="M230 6L145 -158L84 -132L133 0H82V148H230V6ZM230 412H82V560H230V412Z"  />
<glyph unicode="&lt;" horiz-adv-x="584" d="M80 184V308L505 478V370L199 247L505 125V17L80 184Z"  />
<glyph unicode="=" horiz-adv-x="584" d="M534 422V313H50V422H534ZM534 180V71H50V180H534Z"  />
<glyph unicode="&gt;" horiz-adv-x="584" d="M80 125L386 247L80 370V478L505 308V184L80 17V125Z"  />
<glyph unicode="?" horiz-adv-x="447" d="M23 660Q55 720 106 755T226 790Q267 790 303 780T366 747T408 693T424 615Q424 568 410 536T376 479T332 431T289 383T258 322T249 237H115V270Q115 313 128 347T160 411T202 464T244 512T277 559T290 608Q290 631 274 649T234 667Q199 667 174 644T136 590L23 660ZM255 0H107V148H255V0Z"  />
<glyph unicode="@" horiz-adv-x="860" d="M322 353Q322 310 335 284T385 258Q402 258 422 274T460 316T490 373T502 433Q502 443 500 457T490 484T471 506T441 515Q414 515 392 502T355 467T331 415T322 353ZM548 584H650L578 310Q576 302 577 293T582 276T595 263T618 258Q677 258 710 293T743 389Q743 461 719 519T653 617T554 680T430 702Q367 702 310 680T210 618T142 519T117 389Q117 317 142 259T210 161T310 98T430 76Q499 76 544 85T621 112L657 28Q624 13 563 1T430 -12Q342 -12 269 19T142 105T59 233T29 389Q29 472 58 545T141 672T268 758T430 790Q517 790 591 759T718 673T801 545T831 389Q831 338 814 298T767 229T700 185T620 170Q584 170 562 176T526 193T505 214T492 235Q476 216 462 204T433 184T402 173T367 170Q328 170 299 183T249 219T218 271T207 330Q207 393 227 443T280 529T357 584T447 603Q468 603 482 597T507 582T523 562T534 540L548 584Z"  />
<glyph unicode="A" horiz-adv-x="634" d="M642 0H483L432 195H202L151 0H-8L210 778H420L642 0ZM319 644H315L233 318H401L319 644Z"  />
<glyph unicode="B" horiz-adv-x="647" d="M311 123Q329 123 352 124T397 135T434 168T449 235Q449 275 433 298T386 333T311 346T210 344V123H311ZM54 0V778H278Q372 778 433 763T530 719T580 651T594 564Q594 509 569 469T496 403Q550 377 579 330T609 224Q609 174 590 133T537 62T457 16T358 0H54ZM210 462Q253 462 293 462T365 468T415 496T434 556Q434 598 415 618T364 647T292 655T210 655V462Z"  />
<glyph unicode="C" horiz-adv-x="692" d="M653 245Q635 124 559 56T360 -12Q277 -12 217 23T117 115T58 243T39 389Q39 462 58 534T116 663T216 755T360 790Q481 790 557 724T653 533L505 513Q499 543 489 571T462 620T420 654T360 667Q310 667 279 638T230 566T206 475T199 389Q199 351 205 303T229 213T278 141T360 111Q395 111 420 123T462 157T489 206T505 264L653 245Z"  />
<glyph unicode="D" horiz-adv-x="684" d="M244 778Q355 778 431 749T555 667T624 543T645 389Q645 307 624 236T559 113T450 30T298 0H54V778H244ZM286 132Q332 132 369 147T432 196T471 281T485 407Q485 530 432 588T269 646H210V132H286Z"  />
<glyph unicode="E" horiz-adv-x="600" d="M538 646H210V460H482V328H210V132H557V0H54V778H538V646Z"  />
<glyph unicode="F" horiz-adv-x="561" d="M538 646H210V460H463V328H210V0H54V778H538V646Z"  />
<glyph unicode="G" horiz-adv-x="694" d="M362 268V391H647V0H538L523 55Q490 18 445 3T360 -12Q277 -12 217 23T117 115T58 243T39 389Q39 462 58 534T116 663T216 755T360 790Q417 790 467 773T555 725T617 649T647 549L507 528Q502 556 492 581T465 626T422 656T360 667Q310 667 279 638T230 566T206 475T199 389Q199 351 205 303T229 213T278 141T360 111Q405 111 433 123T476 156T495 206T497 268H362Z"  />
<glyph unicode="H" horiz-adv-x="677" d="M467 474V778H623V0H467V342H210V0H54V778H210V474H467Z"  />
<glyph unicode="I" horiz-adv-x="264" d="M54 0V778H210V0H54Z"  />
<glyph unicode="J" horiz-adv-x="510" d="M460 240Q460 161 441 112T391 36T318 -2T233 -12Q140 -12 80 30T0 165L154 195Q157 181 163 166T178 139T201 119T234 111Q304 111 304 211V778H460V240Z"  />
<glyph unicode="K" horiz-adv-x="665" d="M448 778H628L396 474L657 0H479L291 337L210 234V0H54V778H210V453L448 778Z"  />
<glyph unicode="L" horiz-adv-x="557" d="M210 132H534V0H54V778H210V132Z"  />
<glyph unicode="M" horiz-adv-x="852" d="M542 778H798V0H642V620H640L496 0H356L212 620H210V0H54V778H310L425 220H427L542 778Z"  />
<glyph unicode="N" horiz-adv-x="727" d="M282 778L515 265H517V778H673V0H506L212 625H210V0H54V778H282Z"  />
<glyph unicode="O" horiz-adv-x="719" d="M360 790Q443 790 503 755T603 663T662 534T681 389Q681 315 662 244T604 115T504 23T360 -12Q277 -12 217 23T117 115T58 243T39 389Q39 462 58 534T116 663T216 755T360 790ZM360 667Q310 667 279 638T230 566T206 475T199 389Q199 351 205 303T229 213T278 141T360 111Q410 111 441 140T490 212T514 303T521 389Q521 426 515 474T491 565T442 637T360 667Z"  />
<glyph unicode="P" horiz-adv-x="630" d="M354 778Q422 778 470 756T550 698T595 619T610 533Q610 489 596 447T547 371T456 318T315 298H210V0H54V778H354ZM242 430Q274 430 310 430T378 438T429 469T450 538Q450 584 430 606T378 638T311 647T242 646H210V430H242Z"  />
<glyph unicode="Q" horiz-adv-x="719" d="M589 -191H456Q422 -191 392 -188T340 -168T304 -113T291 -6Q251 1 207 27T126 103T64 223T39 389Q39 462 58 534T116 663T216 755T360 790Q443 790 503 755T603 663T662 534T681 389Q681 294 657 223T595 103T510 28T417 -6Q417 -32 420 -47T430 -69T448 -78T477 -80H589V-191ZM360 667Q310 667 279 638T230 566T206 475T199 389Q199 351 205 303T229 213T278 141T360 111Q410 111 441 140T490 212T514 303T521 389Q521 426 515 474T491 565T442 637T360 667Z"  />
<glyph unicode="R" horiz-adv-x="659" d="M361 778Q428 778 475 757T553 702T596 628T610 551Q610 519 601 489T574 433T532 387T478 355L633 0H469L329 323H210V0H54V778H361ZM278 455Q303 455 333 456T389 465T432 492T450 548Q450 588 433 608T388 637T329 645T268 646H210V455H278Z"  />
<glyph unicode="S" horiz-adv-x="617" d="M417 549Q411 569 403 588T381 623T351 648T309 658Q290 658 273 652T242 633T222 605T214 568Q214 530 241 510T309 476T397 448T485 409T553 340T580 225Q580 189 566 148T520 71T438 12T316 -12Q205 -12 130 43T37 212L193 235Q198 210 207 189T231 153T266 129T315 120Q361 120 394 144T427 219Q427 258 400 279T332 315T244 343T156 381T88 444T61 550Q61 602 81 646T137 722T217 772T314 790Q363 790 405 775T480 731T533 663T558 574L417 549Z"  />
<glyph unicode="T" horiz-adv-x="575" d="M568 646H366V0H210V646H8V778H568V646Z"  />
<glyph unicode="U" horiz-adv-x="647" d="M598 778V240Q598 180 578 133T522 54T436 5T324 -12Q262 -12 212 5T125 54T70 133T50 240V778H206V290Q206 241 213 209T235 157T272 129T324 120Q354 120 376 128T412 156T434 208T442 290V778H598Z"  />
<glyph unicode="V" horiz-adv-x="600" d="M371 0H229L-8 778H153L299 200H301L447 778H608L371 0Z"  />
<glyph unicode="W" horiz-adv-x="856" d="M687 0H527L423 538H421L316 0H156L-8 778H146L239 230H241L338 778H510L607 230H609L710 778H864L687 0Z"  />
<glyph unicode="X" horiz-adv-x="645" d="M408 396L645 0H463L322 254L173 0H0L238 396L21 778H203L328 528L463 778H636L408 396Z"  />
<glyph unicode="Y" horiz-adv-x="653" d="M403 314V0H247V314L-8 778H158L326 436L500 778H661L403 314Z"  />
<glyph unicode="Z" horiz-adv-x="569" d="M538 652L210 132H538V0H31V122L359 646H42V778H538V652Z"  />
<glyph unicode="[" horiz-adv-x="329" d="M329 -84V-191H78V778H329V671H193V-84H329Z"  />
<glyph unicode="\" horiz-adv-x="500" d="M92 778L518 0H407L-19 778H92Z"  />
<glyph unicode="]" horiz-adv-x="329" d="M136 671H0V778H251V-191H0V-84H136V671Z"  />
<glyph unicode="^" horiz-adv-x="584" d="M229 778H353L523 353H415L292 659L170 353H62L229 778Z"  />
<glyph unicode="_" horiz-adv-x="500" d="M500 -125H0V-75H500V-125Z"  />
<glyph unicode="`" horiz-adv-x="350" d="M245 638H153L50 778H186L245 638Z"  />
<glyph unicode="a" horiz-adv-x="573" d="M374 51Q353 36 336 25T300 5T262 -7T215 -12Q179 -12 147 0T91 33T53 85T39 154Q39 193 55 222T97 273T158 309T228 333T300 348T366 357Q374 416 356 439T295 463Q260 463 236 447T206 393L64 415Q76 460 97 490T147 538T213 564T294 572Q407 572 460 523T514 395V117Q514 87 517 58T534 0H390L374 51ZM366 256Q343 252 312 248T253 233T204 206T184 157Q184 132 196 115T235 97Q281 97 313 119T366 170V256Z"  />
<glyph unicode="b" horiz-adv-x="584" d="M54 778H202V505Q233 533 264 552T340 572Q370 572 406 558T473 511T524 425T545 294Q545 205 527 147T479 53T410 3T328 -12Q305 -12 286 -9T251 2T219 21T186 47L173 0H54V778ZM202 163Q219 137 242 117T298 97Q331 97 351 115T382 160T396 218T400 274Q400 297 396 326T381 380T351 423T301 440Q269 440 246 421T202 379V163Z"  />
<glyph unicode="c" horiz-adv-x="558" d="M519 181Q501 93 440 41T285 -12Q224 -12 178 13T101 78T55 171T39 280Q39 336 54 388T100 482T177 547T285 572Q379 572 440 520T519 379L385 356Q381 376 376 395T359 429T331 453T285 463Q255 463 237 444T208 398T195 338T191 280Q191 254 194 222T208 162T236 116T285 97Q313 97 330 106T359 131T375 165T385 205L519 181Z"  />
<glyph unicode="d" horiz-adv-x="584" d="M398 47Q381 32 366 21T334 3T298 -8T256 -12Q214 -12 175 2T105 52T57 146T39 294Q39 372 59 425T111 510T178 557T244 572Q266 572 284 567T319 552T351 531T382 505V778H530V0H411L398 47ZM382 394Q362 417 339 436T283 455Q252 455 233 438T203 396T188 341T184 289Q184 264 187 234T201 177T232 132T286 114Q319 114 342 133T382 178V394Z"  />
<glyph unicode="e" horiz-adv-x="569" d="M385 338Q385 362 380 384T364 424T334 452T289 463Q264 463 246 452T217 423T200 383T193 338H385ZM188 245Q186 219 192 193T213 146T249 111T300 97Q340 97 362 124T393 187L530 162Q518 120 493 88T435 34T364 0T285 -12Q224 -12 178 13T101 78T55 171T39 280Q39 336 54 388T100 482T177 547T285 572Q338 572 383 558T462 506T513 406T530 245H188Z"  />
<glyph unicode="f" horiz-adv-x="331" d="M331 437H222V0H74V437H0V560H74V619Q74 646 83 674T111 725T162 763T238 778H331V646H304Q274 646 258 646T233 642T224 623T222 580V560H331V437Z"  />
<glyph unicode="g" horiz-adv-x="599" d="M204 371Q204 333 223 306T285 278Q308 278 323 287T348 310T361 343T365 382Q365 420 346 448T285 476Q262 476 247 467T222 444T208 410T204 371ZM183 -1Q172 -8 166 -15T160 -36Q160 -56 177 -67T217 -83T263 -89T300 -91Q309 -91 334 -90T387 -84T434 -70T455 -43Q455 -32 451 -27T434 -19T401 -15T347 -12L183 -1ZM230 184Q217 184 203 177T188 149Q188 131 216 127T288 123T382 121T475 108T547 68T576 -16Q576 -47 564 -77T521 -132T435 -172T298 -187Q226 -187 177 -175T97 -144T53 -99T39 -46Q39 -14 56 5T100 39Q82 53 69 69T56 110Q56 151 76 176T129 222Q98 252 79 290T59 376Q59 422 77 458T127 520T199 559T285 572Q322 572 356 562T423 533Q446 554 468 566T524 579Q535 579 545 578T567 575V471Q556 476 544 479T520 483Q508 483 500 480T480 471Q492 448 500 424T510 376Q510 329 492 293T443 232T371 193T285 180L230 184Z"  />
<glyph unicode="h" horiz-adv-x="566" d="M200 502Q235 531 277 551T367 572Q390 572 416 564T463 536T499 483T514 397V0H366V337Q366 354 366 374T360 411T342 441T305 453Q273 453 247 434T200 392V0H52V778H200V502Z"  />
<glyph unicode="i" horiz-adv-x="257" d="M203 0H55V560H203V0ZM203 642H55V778H203V642Z"  />
<glyph unicode="j" horiz-adv-x="257" d="M203 4Q203 -52 191 -89T157 -149T100 -181T23 -191H-48V-72H1Q10 -72 19 -72T36 -64T49 -41T55 8V560H203V4ZM203 642H55V778H203V642Z"  />
<glyph unicode="k" horiz-adv-x="556" d="M202 350L358 560H528L355 350L545 0H379L256 230L202 164V0H54V778H202V350Z"  />
<glyph unicode="l" horiz-adv-x="257" d="M203 0H55V778H203V0Z"  />
<glyph unicode="m" horiz-adv-x="893" d="M201 502Q236 531 278 551T368 572Q470 572 511 495Q549 527 590 549T684 572Q717 572 745 562T795 530T828 478T841 405V0H693V353Q693 369 693 387T687 419T669 443T634 453Q599 453 570 434T521 387V0H373V353Q373 369 373 387T367 419T349 443T314 453Q279 453 250 434T201 387V0H53V560H201V502Z"  />
<glyph unicode="n" horiz-adv-x="566" d="M200 502Q235 531 277 551T367 572Q390 572 416 564T463 536T499 483T514 397V0H366V337Q366 354 366 374T360 411T342 441T305 453Q273 453 247 434T200 392V0H52V560H200V502Z"  />
<glyph unicode="o" horiz-adv-x="570" d="M285 -12Q224 -12 178 13T101 78T55 171T39 280Q39 336 54 388T100 482T177 547T285 572Q346 572 392 548T469 482T515 389T531 280Q531 224 516 172T469 79T392 13T285 -12ZM285 97Q315 97 333 115T362 162T375 222T379 280Q379 306 376 338T362 397T334 444T285 463Q255 463 237 444T208 398T195 338T191 280Q191 254 194 222T208 162T236 116T285 97Z"  />
<glyph unicode="p" horiz-adv-x="584" d="M202 505Q233 533 264 552T340 572Q370 572 406 558T473 511T524 425T545 294Q545 205 527 147T479 53T410 3T328 -12Q293 -12 263 2T202 40V-191H54V560H202V505ZM202 163Q219 137 242 117T298 97Q331 97 351 115T382 160T396 218T400 274Q400 297 396 326T381 380T351 423T301 440Q269 440 246 421T202 379V163Z"  />
<glyph unicode="q" horiz-adv-x="584" d="M530 -191H382V36Q349 14 321 1T256 -12Q214 -12 175 2T105 52T57 146T39 294Q39 372 59 425T111 510T178 557T244 572Q272 572 293 569T332 558T365 539T398 513L411 560H530V-191ZM382 401Q350 443 296 443Q261 443 240 427T206 387T189 333T184 276Q184 249 189 219T206 165T241 124T296 108Q322 108 342 119T382 146V401Z"  />
<glyph unicode="r" horiz-adv-x="417" d="M202 462Q245 513 283 542T373 572H401V424Q390 426 380 428T358 430Q344 430 318 422T266 394T221 338T202 246V0H54V560H202V462Z"  />
<glyph unicode="s" horiz-adv-x="487" d="M309 396Q304 425 291 444T245 463Q219 463 202 446T185 401Q185 377 205 365T255 344T320 326T386 298T436 249T456 165Q456 120 439 87T392 32T325 -1T243 -12Q156 -12 104 30T40 160L179 175Q181 145 197 121T248 97Q276 97 298 111T320 157Q320 181 300 193T250 213T185 230T119 257T69 306T49 393Q49 435 66 468T111 525T177 560T255 572Q292 572 324 561T382 529T425 479T449 413L309 396Z"  />
<glyph unicode="t" horiz-adv-x="332" d="M217 560H332V437H217V152Q217 142 219 132T227 115T244 102T273 97Q292 97 305 103T332 118V5Q309 -2 285 -7T237 -12Q202 -12 172 -2T119 29T83 83T69 162V437H0V560H69V700H217V560Z"  />
<glyph unicode="u" horiz-adv-x="566" d="M366 58Q331 29 289 9T199 -12Q176 -12 150 -4T103 24T67 77T52 163V560H200V223Q200 206 200 186T206 149T224 119T261 107Q293 107 319 126T366 168V560H514V0H366V58Z"  />
<glyph unicode="v" horiz-adv-x="499" d="M330 0H174L0 560H155L253 159H255L351 560H499L330 0Z"  />
<glyph unicode="w" horiz-adv-x="692" d="M549 0H410L344 375H342L274 0H135L0 560H135L203 189H205L276 560H425L487 189H489L565 560H692L549 0Z"  />
<glyph unicode="x" horiz-adv-x="542" d="M352 293L538 0H371L267 180L165 0H4L189 282L15 560H182L274 401L369 560H530L352 293Z"  />
<glyph unicode="y" horiz-adv-x="528" d="M312 -45Q298 -83 284 -113T248 -163T197 -195T122 -206Q76 -206 27 -195V-68Q44 -74 58 -78T91 -82Q116 -82 133 -75T163 -56T184 -26T200 14L0 560H160L273 191L376 560H528L312 -45Z"  />
<glyph unicode="z" horiz-adv-x="524" d="M485 455L224 117H485V0H39V100L296 443H56V560H485V455Z"  />
<glyph unicode="{" horiz-adv-x="389" d="M36 342Q43 342 57 342T84 346T108 360T118 392V636Q118 673 130 700T161 744T198 770T231 778H316V681H279Q262 681 253 676T239 662T234 642T233 620V396Q232 366 222 347T196 316T165 301T137 295V292Q149 291 165 287T196 271T221 240T233 191V-33Q233 -44 233 -55T238 -74T252 -88T279 -94H316V-191H231Q217 -191 198 -183T161 -158T131 -114T118 -49V195Q118 216 108 226T85 241T57 245T36 245V342Z"  />
<glyph unicode="|" horiz-adv-x="280" d="M198 -250H83V750H198V-250Z"  />
<glyph unicode="}" horiz-adv-x="389" d="M353 245Q345 245 332 245T305 241T281 227T271 195V-49Q271 -87 259 -113T228 -157T191 -183T158 -191H73V-94H110Q127 -94 136 -89T150 -75T155 -55T156 -33V191Q157 221 167 240T193 270T224 286T252 292V295Q240 296 224 300T193 316T168 346T156 396V620Q156 631 156 642T151 661T137 675T110 681H73V778H158Q171 778 190 770T228 745T258 700T271 636V392Q271 371 281 361T304 346T331 342T353 342V245Z"  />
<glyph unicode="~" horiz-adv-x="584" d="M498 323Q499 297 491 270T467 220T425 184T368 170Q343 170 322 176T281 189T244 203T210 209Q192 209 183 197T172 170H87Q85 196 93 223T118 272T159 309T214 323Q239 323 261 318T302 305T340 293T376 287Q394 287 403 297T415 323H498Z"  />
<glyph unicode="&#xA0;" horiz-adv-x="311" />
<glyph unicode="&#xA1;" horiz-adv-x="247" d="M208 -191H39L62 323H185L208 -191ZM49 560H197V412H49V560Z"  />
<glyph unicode="&#xA2;" horiz-adv-x="622" d="M552 300Q536 223 487 172T359 109V20H263V113Q213 126 177 152T117 216T82 297T70 392Q70 442 80 488T114 573T174 640T263 683V778H359V688Q437 678 487 626T552 498L418 475Q414 495 409 514T393 548T367 572T326 582Q292 582 272 563T242 516T228 456T224 399Q224 373 227 342T241 282T272 235T326 216Q351 216 367 225T393 250T408 284T418 324L552 300Z"  />
<glyph unicode="&#xA3;" horiz-adv-x="622" d="M217 129Q200 140 185 149T148 158Q131 158 118 150T105 122Q105 104 118 93T148 82Q172 82 187 97T217 129ZM62 357V468H152Q146 495 142 522T138 578Q138 628 156 667T206 734T280 775T370 790Q449 790 505 751T585 635L456 592Q448 621 424 644T368 667Q348 667 335 660T312 640T299 611T295 577Q295 549 301 522T315 468H473V357H352Q360 328 365 299T370 239Q370 219 368 200T360 160Q391 141 410 131T448 120Q475 120 489 135T525 183L638 129Q623 103 608 78T573 32T528 0T468 -12Q423 -12 385 9T313 58Q279 24 241 6T155 -12Q124 -12 95 -3T44 23T9 66T-4 126Q-4 154 6 178T34 219T76 246T128 256Q156 256 178 250T225 233Q220 265 213 296T192 357H62Z"  />
<glyph unicode="&#xA4;" horiz-adv-x="622" d="M514 76L427 160Q407 147 378 139T311 130Q273 130 243 139T185 164L108 76L34 151L120 238Q101 267 93 291T84 351Q84 386 92 410T120 464L34 551L108 626L185 538Q212 554 242 563T311 572Q349 572 378 564T427 542L514 626L588 551L502 464Q521 435 529 411T538 351Q538 316 530 292T502 238L588 151L514 76ZM311 458Q286 458 266 448T231 423T210 388T204 351Q202 333 209 314T231 280T265 254T311 244Q336 244 356 254T390 279T412 314T418 351Q419 369 412 388T391 422T356 448T311 458Z"  />
<glyph unicode="&#xA5;" horiz-adv-x="622" d="M488 560H597V449H420L389 392V358H597V247H389V0H233V247H25V358H233V392L197 449H25V560H131L0 778H166L311 514L461 778H622L488 560Z"  />
<glyph unicode="&#xA6;" horiz-adv-x="280" d="M198 325H83V675H198V325ZM198 -175H83V175H198V-175Z"  />
<glyph unicode="&#xA7;" horiz-adv-x="622" d="M397 190Q416 205 431 224T446 270Q446 288 440 301T424 323T400 339T372 352L225 416Q206 401 191 382T176 336Q176 318 182 305T198 283T222 267T250 254L397 190ZM413 582Q405 599 396 614T375 641T347 660T310 667Q296 667 282 664T257 653T239 634T231 606Q231 589 238 578T257 558T283 545T311 534L402 498Q436 485 467 467T523 425T561 370T576 299Q576 247 548 205T482 130Q506 104 520 75T535 10Q535 -35 517 -72T468 -137T397 -180T312 -195Q271 -195 235 -184T168 -151T114 -100T78 -31L209 13Q217 -4 226 -19T247 -46T275 -65T312 -72Q325 -72 339 -69T365 -58T383 -39T391 -11Q391 6 384 17T365 37T339 50T311 61L220 97Q186 110 155 127T99 169T61 224T46 296Q46 348 74 390T140 465Q116 491 102 520T87 585Q87 630 105 667T154 732T225 775T310 790Q350 790 387 779T454 746T508 695T544 626L413 582Z"  />
<glyph unicode="&#xA8;" horiz-adv-x="533" d="M226 630H78V778H226V630ZM455 630H307V778H455V630Z"  />
<glyph unicode="&#xA9;" horiz-adv-x="860" d="M430 -12Q342 -12 269 19T142 105T59 233T29 389Q29 472 58 545T141 672T268 758T430 790Q517 790 591 759T718 673T801 545T831 389Q831 306 801 233T718 106T591 20T430 -12ZM430 76Q497 76 554 98T653 160T719 259T743 389Q743 461 719 519T653 617T554 680T430 702Q367 702 310 680T210 618T142 519T117 389Q117 317 142 259T210 161T310 98T430 76ZM633 303Q622 231 571 190T430 149Q388 149 350 163T284 206T239 279T222 385Q222 439 235 484T274 561T339 612T430 630Q518 630 569 591T633 476L525 464Q522 482 516 498T498 528T470 548T430 556Q406 556 390 539T364 495T349 440T344 389Q344 366 348 338T363 284T390 241T430 223Q476 223 497 250T525 314L633 303Z"  />
<glyph unicode="&#xAA;" horiz-adv-x="322" d="M207 593Q196 591 179 589T146 581T118 566T106 542Q106 528 115 521T138 513Q158 513 176 525T207 553V593ZM207 682Q207 699 200 709T167 720Q145 720 132 712T114 681L22 694Q37 748 73 769T163 790Q197 790 223 784T267 763T293 722T302 656V521Q302 501 304 485T315 450H223L213 478Q190 462 171 453T122 443Q101 443 81 449T44 467T18 497T8 539Q8 576 28 599T79 637T144 657T207 669V682Z"  />
<glyph unicode="&#xAB;" horiz-adv-x="489" d="M249 296L341 519H450L366 296L450 73H341L249 296ZM39 296L131 519H240L156 296L240 73H131L39 296Z"  />
<glyph unicode="&#xAC;" horiz-adv-x="584" d="M419 313H50V422H534V131H419V313Z"  />
<glyph unicode="&#xAD;" horiz-adv-x="341" d="M302 358V234H39V358H302Z"  />
<glyph unicode="&#xAE;" horiz-adv-x="860" d="M430 -12Q342 -12 269 19T142 105T59 233T29 389Q29 472 58 545T141 672T268 758T430 790Q517 790 591 759T718 673T801 545T831 389Q831 306 801 233T718 106T591 20T430 -12ZM430 76Q497 76 554 98T653 160T719 259T743 389Q743 461 719 519T653 617T554 680T430 702Q367 702 310 680T210 618T142 519T117 389Q117 317 142 259T210 161T310 98T430 76ZM460 623Q505 623 538 611T592 579T624 532T635 473Q635 424 609 390T537 341L632 156H514L435 322H365V156H260V623H460ZM407 410Q423 410 443 410T480 416T508 434T520 471Q520 497 509 510T480 528T441 534T401 535H365V410H407Z"  />
<glyph unicode="&#xAF;" horiz-adv-x="576" d="M498 673H78V778H498V673Z"  />
<glyph unicode="&#xB0;" horiz-adv-x="400" d="M360 630Q360 595 348 566T315 515T264 482T200 470Q165 470 136 482T85 515T52 565T40 630Q40 664 51 693T84 744T135 778T200 790Q234 790 263 778T314 745T348 694T360 630ZM270 630Q270 659 250 679T200 700Q171 700 150 680T130 630Q130 601 150 581T200 560Q229 560 249 580T270 630Z"  />
<glyph unicode="&#xB1;" horiz-adv-x="584" d="M350 493V377H534V268H350V152H235V268H50V377H235V493H350ZM50 109H534V0H50V109Z"  />
<glyph unicode="&#xB2;" horiz-adv-x="373" d="M352 316H19V428Q55 473 94 505T165 561T218 605T239 646Q239 673 225 686T191 700Q152 700 136 684T115 636L9 656Q10 688 23 713T61 755T117 781T188 790Q231 790 262 779T313 750T344 706T354 654Q354 619 345 595T319 551T280 517T234 485T183 450T132 406H352V316Z"  />
<glyph unicode="&#xB3;" horiz-adv-x="373" d="M127 605Q141 605 161 605T199 611T231 626T244 655Q244 669 229 684T187 700Q158 700 143 685T121 658L24 691Q47 738 89 764T189 790Q220 790 250 784T305 763T344 724T359 663Q359 625 337 603T275 564Q317 550 342 522T368 455Q368 414 353 386T312 341T253 317T184 309Q152 309 123 317T69 342T28 382T5 435L109 453Q112 443 117 434T132 417T154 404T187 399Q216 399 234 416T253 449Q253 470 240 483T207 503T166 513T127 515V605Z"  />
<glyph unicode="&#xB4;" horiz-adv-x="350" d="M164 778H300L197 638H105L164 778Z"  />
<glyph unicode="&#xB5;" horiz-adv-x="566" d="M366 58Q330 29 286 9T200 -12V-191H52V560H200V223Q200 206 200 186T206 149T224 119T261 107Q293 107 319 126T366 168V560H514V0H366V58Z"  />
<glyph unicode="&#xB6;" horiz-adv-x="670" d="M622 -189H517V688H427V-189H322V358H251Q192 358 150 378T82 429T43 497T30 567Q30 613 46 652T90 719T157 762T241 778H622V-189ZM279 688Q158 688 158 570Q158 516 187 482T268 448H322V688H279Z"  />
<glyph unicode="&#xB7;" horiz-adv-x="311" d="M230 173H82V321H230V173Z"  />
<glyph unicode="&#xB8;" horiz-adv-x="303" d="M157 -232H78L103 -65H225L157 -232Z"  />
<glyph unicode="&#xB9;" horiz-adv-x="373" d="M245 406H316V316H58V406H130V681H58V747L165 783H245V406Z"  />
<glyph unicode="&#xBA;" horiz-adv-x="345" d="M325 617Q325 582 315 551T286 495T238 457T172 443Q135 443 107 457T60 495T30 550T20 617Q20 651 30 682T59 738T106 776T172 790Q209 790 237 776T285 738T315 683T325 617ZM118 617Q118 604 120 586T127 552T144 525T173 513Q191 513 201 524T218 552T225 586T227 617Q227 630 226 648T218 682T202 709T173 720Q155 720 144 709T127 682T120 648T118 617Z"  />
<glyph unicode="&#xBB;" horiz-adv-x="489" d="M148 73H39L123 296L39 519H148L240 296L148 73ZM358 73H249L333 296L249 519H358L450 296L358 73Z"  />
<glyph unicode="&#xBC;" horiz-adv-x="933" d="M716 0V90H511V171L693 467H831V180H889V90H831V0H716ZM707 778L313 0H219L613 778H707ZM716 347H713L618 180H716V347ZM238 406H309V316H51V406H123V681H51V747L158 783H238V406Z"  />
<glyph unicode="&#xBD;" horiz-adv-x="933" d="M685 778L291 0H197L591 778H685ZM222 406H293V316H35V406H107V681H35V747L142 783H222V406ZM896 0H563V112Q599 157 638 189T709 245T762 289T783 330Q783 357 769 370T735 384Q696 384 680 368T659 320L553 340Q554 372 567 397T605 439T661 465T732 474Q775 474 806 463T857 434T888 390T898 338Q898 304 889 279T863 235T824 201T778 169T727 134T676 90H896V0Z"  />
<glyph unicode="&#xBE;" horiz-adv-x="933" d="M730 0V90H525V171L707 467H845V180H903V90H845V0H730ZM721 778L327 0H233L627 778H721ZM730 347H727L632 180H730V347ZM137 605Q151 605 171 605T209 611T241 626T254 655Q254 669 239 684T197 700Q168 700 153 685T131 658L34 691Q57 738 99 764T199 790Q230 790 260 784T315 763T354 724T369 663Q369 625 347 603T285 564Q327 550 352 522T378 455Q378 414 363 386T322 341T263 317T194 309Q162 309 133 317T79 342T38 382T15 435L119 453Q122 443 127 434T142 417T164 404T197 399Q226 399 244 416T263 449Q263 470 250 483T217 503T176 513T137 515V605Z"  />
<glyph unicode="&#xBF;" horiz-adv-x="447" d="M424 -76Q392 -136 341 -171T221 -206Q180 -206 144 -196T81 -163T39 -109T23 -31Q23 15 37 47T71 104T115 149T158 194T189 248T198 323H332V290Q332 253 319 223T287 166T245 117T203 71T170 25T157 -24Q157 -47 173 -65T213 -83Q248 -83 273 -60T311 -6L424 -76ZM192 560H340V412H192V560Z"  />
<glyph unicode="&#xC0;" horiz-adv-x="634" d="M642 0H483L432 195H202L151 0H-8L210 778H420L642 0ZM319 644H315L233 318H401L319 644ZM387 856H295L192 996H328L387 856Z"  />
<glyph unicode="&#xC1;" horiz-adv-x="634" d="M642 0H483L432 195H202L151 0H-8L210 778H420L642 0ZM319 644H315L233 318H401L319 644ZM306 996H442L339 856H247L306 996Z"  />
<glyph unicode="&#xC2;" horiz-adv-x="634" d="M642 0H483L432 195H202L151 0H-8L210 778H420L642 0ZM319 644H315L233 318H401L319 644ZM493 856H358L302 919L250 856H118L235 996H371L493 856Z"  />
<glyph unicode="&#xC3;" horiz-adv-x="634" d="M642 0H483L432 195H202L151 0H-8L210 778H420L642 0ZM319 644H315L233 318H401L319 644ZM488 996Q489 972 483 948T463 903T428 870T380 857Q359 857 341 862T307 874T277 886T248 892Q233 892 226 882T217 857H146Q144 881 151 905T172 950T206 983T252 996Q273 996 291 991T325 980T356 968T387 963Q402 963 409 972T419 996H488Z"  />
<glyph unicode="&#xC4;" horiz-adv-x="634" d="M642 0H483L432 195H202L151 0H-8L210 778H420L642 0ZM319 644H315L233 318H401L319 644ZM277 848H129V996H277V848ZM506 848H358V996H506V848Z"  />
<glyph unicode="&#xC5;" horiz-adv-x="634" d="M642 0H483L432 195H202L151 0H-8L210 778H420L642 0ZM319 644H315L233 318H401L319 644ZM201 923Q201 947 210 968T235 1005T272 1030T317 1040Q341 1040 362 1031T400 1006T425 969T434 923Q434 899 425 878T400 840T363 815T317 806Q293 806 272 815T235 840T210 877T201 923ZM271 923Q271 903 284 890T317 876Q337 876 350 889T364 923Q364 943 351 956T317 970Q298 970 285 957T271 923Z"  />
<glyph unicode="&#xC6;" horiz-adv-x="895" d="M432 195H202L151 0H-8L210 778H823V646H452L504 460H773V328H543L599 132H849V0H483L432 195ZM319 644H315L233 318H401L319 644Z"  />
<glyph unicode="&#xC7;" horiz-adv-x="692" d="M653 245Q635 124 559 56T360 -12Q277 -12 217 23T117 115T58 243T39 389Q39 462 58 534T116 663T216 755T360 790Q481 790 557 724T653 533L505 513Q499 543 489 571T462 620T420 654T360 667Q310 667 279 638T230 566T206 475T199 389Q199 351 205 303T229 213T278 141T360 111Q395 111 420 123T462 157T489 206T505 264L653 245ZM352 -232H273L298 -65H420L352 -232Z"  />
<glyph unicode="&#xC8;" horiz-adv-x="600" d="M538 646H210V460H482V328H210V132H557V0H54V778H538V646ZM370 856H278L175 996H311L370 856Z"  />
<glyph unicode="&#xC9;" horiz-adv-x="600" d="M538 646H210V460H482V328H210V132H557V0H54V778H538V646ZM289 996H425L322 856H230L289 996Z"  />
<glyph unicode="&#xCA;" horiz-adv-x="600" d="M538 646H210V460H482V328H210V132H557V0H54V778H538V646ZM488 856H353L297 919L245 856H113L230 996H366L488 856Z"  />
<glyph unicode="&#xCB;" horiz-adv-x="600" d="M538 646H210V460H482V328H210V132H557V0H54V778H538V646ZM260 848H112V996H260V848ZM489 848H341V996H489V848Z"  />
<glyph unicode="&#xCC;" horiz-adv-x="264" d="M54 0V778H210V0H54ZM204 856H112L9 996H145L204 856Z"  />
<glyph unicode="&#xCD;" horiz-adv-x="264" d="M54 0V778H210V0H54ZM123 996H259L156 856H64L123 996Z"  />
<glyph unicode="&#xCE;" horiz-adv-x="264" d="M54 0V778H210V0H54ZM322 856H187L131 919L79 856H-53L64 996H200L322 856Z"  />
<glyph unicode="&#xCF;" horiz-adv-x="264" d="M54 0V778H210V0H54ZM94 848H-54V996H94V848ZM323 848H175V996H323V848Z"  />
<glyph unicode="&#xD0;" horiz-adv-x="684" d="M244 778Q355 778 431 749T555 667T624 543T645 389Q645 307 624 236T559 113T450 30T298 0H54V328H-20V460H54V778H244ZM286 132Q332 132 369 147T432 196T471 281T485 407Q485 530 432 588T269 646H210V460H345V328H210V132H286Z"  />
<glyph unicode="&#xD1;" horiz-adv-x="727" d="M282 778L515 265H517V778H673V0H506L212 625H210V0H54V778H282ZM535 996Q536 972 530 948T510 903T475 870T427 857Q406 857 388 862T354 874T324 886T295 892Q280 892 273 882T264 857H193Q191 881 198 905T219 950T253 983T299 996Q320 996 338 991T372 980T403 968T434 963Q449 963 456 972T466 996H535Z"  />
<glyph unicode="&#xD2;" horiz-adv-x="719" d="M360 790Q443 790 503 755T603 663T662 534T681 389Q681 315 662 244T604 115T504 23T360 -12Q277 -12 217 23T117 115T58 243T39 389Q39 462 58 534T116 663T216 755T360 790ZM360 667Q310 667 279 638T230 566T206 475T199 389Q199 351 205 303T229 213T278 141T360 111Q410 111 441 140T490 212T514 303T521 389Q521 426 515 474T491 565T442 637T360 667ZM430 856H338L235 996H371L430 856Z"  />
<glyph unicode="&#xD3;" horiz-adv-x="719" d="M360 790Q443 790 503 755T603 663T662 534T681 389Q681 315 662 244T604 115T504 23T360 -12Q277 -12 217 23T117 115T58 243T39 389Q39 462 58 534T116 663T216 755T360 790ZM360 667Q310 667 279 638T230 566T206 475T199 389Q199 351 205 303T229 213T278 141T360 111Q410 111 441 140T490 212T514 303T521 389Q521 426 515 474T491 565T442 637T360 667ZM349 996H485L382 856H290L349 996Z"  />
<glyph unicode="&#xD4;" horiz-adv-x="719" d="M360 790Q443 790 503 755T603 663T662 534T681 389Q681 315 662 244T604 115T504 23T360 -12Q277 -12 217 23T117 115T58 243T39 389Q39 462 58 534T116 663T216 755T360 790ZM360 667Q310 667 279 638T230 566T206 475T199 389Q199 351 205 303T229 213T278 141T360 111Q410 111 441 140T490 212T514 303T521 389Q521 426 515 474T491 565T442 637T360 667ZM547 856H412L356 919L304 856H172L289 996H425L547 856Z"  />
<glyph unicode="&#xD5;" horiz-adv-x="719" d="M360 790Q443 790 503 755T603 663T662 534T681 389Q681 315 662 244T604 115T504 23T360 -12Q277 -12 217 23T117 115T58 243T39 389Q39 462 58 534T116 663T216 755T360 790ZM360 667Q310 667 279 638T230 566T206 475T199 389Q199 351 205 303T229 213T278 141T360 111Q410 111 441 140T490 212T514 303T521 389Q521 426 515 474T491 565T442 637T360 667ZM531 996Q532 972 526 948T506 903T471 870T423 857Q402 857 384 862T350 874T320 886T291 892Q276 892 269 882T260 857H189Q187 881 194 905T215 950T249 983T295 996Q316 996 334 991T368 980T399 968T430 963Q445 963 452 972T462 996H531Z"  />
<glyph unicode="&#xD6;" horiz-adv-x="719" d="M360 790Q443 790 503 755T603 663T662 534T681 389Q681 315 662 244T604 115T504 23T360 -12Q277 -12 217 23T117 115T58 243T39 389Q39 462 58 534T116 663T216 755T360 790ZM360 667Q310 667 279 638T230 566T206 475T199 389Q199 351 205 303T229 213T278 141T360 111Q410 111 441 140T490 212T514 303T521 389Q521 426 515 474T491 565T442 637T360 667ZM319 848H171V996H319V848ZM548 848H400V996H548V848Z"  />
<glyph unicode="&#xD7;" horiz-adv-x="584" d="M130 7L50 85L212 247L50 409L130 487L292 325L454 487L534 409L372 247L534 85L454 7L292 169L130 7Z"  />
<glyph unicode="&#xD8;" horiz-adv-x="719" d="M256 149Q273 129 299 117T360 105Q396 105 425 119T476 165T509 251T521 385Q521 414 517 442T508 500L256 149ZM609 790L681 739L615 645Q649 590 665 524T681 389Q681 315 662 244T604 115T504 23T360 -12Q303 -12 259 4T180 47L108 -43L39 8L121 111Q78 171 59 243T39 389Q39 462 58 534T116 663T216 755T360 790Q423 790 473 770T560 714L609 790ZM478 606Q443 673 360 673Q324 673 298 660T254 624T225 571T209 509T201 445T199 385Q199 350 203 315T218 243L478 606Z"  />
<glyph unicode="&#xD9;" horiz-adv-x="647" d="M598 778V240Q598 180 578 133T522 54T436 5T324 -12Q262 -12 212 5T125 54T70 133T50 240V778H206V290Q206 241 213 209T235 157T272 129T324 120Q354 120 376 128T412 156T434 208T442 290V778H598ZM394 856H302L199 996H335L394 856Z"  />
<glyph unicode="&#xDA;" horiz-adv-x="647" d="M598 778V240Q598 180 578 133T522 54T436 5T324 -12Q262 -12 212 5T125 54T70 133T50 240V778H206V290Q206 241 213 209T235 157T272 129T324 120Q354 120 376 128T412 156T434 208T442 290V778H598ZM313 996H449L346 856H254L313 996Z"  />
<glyph unicode="&#xDB;" horiz-adv-x="647" d="M598 778V240Q598 180 578 133T522 54T436 5T324 -12Q262 -12 212 5T125 54T70 133T50 240V778H206V290Q206 241 213 209T235 157T272 129T324 120Q354 120 376 128T412 156T434 208T442 290V778H598ZM511 856H376L320 919L268 856H136L253 996H389L511 856Z"  />
<glyph unicode="&#xDC;" horiz-adv-x="647" d="M598 778V240Q598 180 578 133T522 54T436 5T324 -12Q262 -12 212 5T125 54T70 133T50 240V778H206V290Q206 241 213 209T235 157T272 129T324 120Q354 120 376 128T412 156T434 208T442 290V778H598ZM283 848H135V996H283V848ZM512 848H364V996H512V848Z"  />
<glyph unicode="&#xDD;" horiz-adv-x="653" d="M403 314V0H247V314L-8 778H158L326 436L500 778H661L403 314ZM316 996H452L349 856H257L316 996Z"  />
<glyph unicode="&#xDE;" horiz-adv-x="630" d="M210 778V630H354Q422 630 470 608T550 550T595 471T610 385Q610 341 596 299T547 223T456 170T315 150H210V0H54V778H210ZM242 282Q274 282 310 282T378 290T429 321T450 390Q450 436 430 458T378 490T311 499T242 498H210V282H242Z"  />
<glyph unicode="&#xDF;" horiz-adv-x="587" d="M276 106Q284 104 290 103T304 102Q329 102 346 117T374 155T389 203T394 249Q394 273 389 299T371 347T335 380T276 386V495Q321 494 345 516T370 585Q370 620 351 643T294 667Q255 667 236 651T210 609T202 554T202 496V0H54V542Q54 607 73 654T124 731T198 775T285 790Q398 790 456 736T515 593Q515 546 494 510T432 450Q463 436 484 413T519 362T539 301T545 238Q545 189 532 144T493 65T426 9T333 -12Q319 -12 305 -8T276 0V106Z"  />
<glyph unicode="&#xE0;" horiz-adv-x="573" d="M374 51Q353 36 336 25T300 5T262 -7T215 -12Q179 -12 147 0T91 33T53 85T39 154Q39 193 55 222T97 273T158 309T228 333T300 348T366 357Q374 416 356 439T295 463Q260 463 236 447T206 393L64 415Q76 460 97 490T147 538T213 564T294 572Q407 572 460 523T514 395V117Q514 87 517 58T534 0H390L374 51ZM366 256Q343 252 312 248T253 233T204 206T184 157Q184 132 196 115T235 97Q281 97 313 119T366 170V256ZM357 638H265L162 778H298L357 638Z"  />
<glyph unicode="&#xE1;" horiz-adv-x="573" d="M374 51Q353 36 336 25T300 5T262 -7T215 -12Q179 -12 147 0T91 33T53 85T39 154Q39 193 55 222T97 273T158 309T228 333T300 348T366 357Q374 416 356 439T295 463Q260 463 236 447T206 393L64 415Q76 460 97 490T147 538T213 564T294 572Q407 572 460 523T514 395V117Q514 87 517 58T534 0H390L374 51ZM366 256Q343 252 312 248T253 233T204 206T184 157Q184 132 196 115T235 97Q281 97 313 119T366 170V256ZM276 778H412L309 638H217L276 778Z"  />
<glyph unicode="&#xE2;" horiz-adv-x="573" d="M374 51Q353 36 336 25T300 5T262 -7T215 -12Q179 -12 147 0T91 33T53 85T39 154Q39 193 55 222T97 273T158 309T228 333T300 348T366 357Q374 416 356 439T295 463Q260 463 236 447T206 393L64 415Q76 460 97 490T147 538T213 564T294 572Q407 572 460 523T514 395V117Q514 87 517 58T534 0H390L374 51ZM366 256Q343 252 312 248T253 233T204 206T184 157Q184 132 196 115T235 97Q281 97 313 119T366 170V256ZM474 638H339L283 701L231 638H99L216 778H352L474 638Z"  />
<glyph unicode="&#xE3;" horiz-adv-x="573" d="M374 51Q353 36 336 25T300 5T262 -7T215 -12Q179 -12 147 0T91 33T53 85T39 154Q39 193 55 222T97 273T158 309T228 333T300 348T366 357Q374 416 356 439T295 463Q260 463 236 447T206 393L64 415Q76 460 97 490T147 538T213 564T294 572Q407 572 460 523T514 395V117Q514 87 517 58T534 0H390L374 51ZM366 256Q343 252 312 248T253 233T204 206T184 157Q184 132 196 115T235 97Q281 97 313 119T366 170V256ZM458 778Q459 754 453 730T433 685T398 652T350 639Q329 639 311 644T277 656T247 668T218 674Q203 674 196 664T187 639H116Q114 663 121 687T142 732T176 765T222 778Q243 778 261 773T295 762T326 750T357 745Q372 745 379 754T389 778H458Z"  />
<glyph unicode="&#xE4;" horiz-adv-x="573" d="M374 51Q353 36 336 25T300 5T262 -7T215 -12Q179 -12 147 0T91 33T53 85T39 154Q39 193 55 222T97 273T158 309T228 333T300 348T366 357Q374 416 356 439T295 463Q260 463 236 447T206 393L64 415Q76 460 97 490T147 538T213 564T294 572Q407 572 460 523T514 395V117Q514 87 517 58T534 0H390L374 51ZM366 256Q343 252 312 248T253 233T204 206T184 157Q184 132 196 115T235 97Q281 97 313 119T366 170V256ZM246 630H98V778H246V630ZM475 630H327V778H475V630Z"  />
<glyph unicode="&#xE5;" horiz-adv-x="573" d="M374 51Q353 36 336 25T300 5T262 -7T215 -12Q179 -12 147 0T91 33T53 85T39 154Q39 193 55 222T97 273T158 309T228 333T300 348T366 357Q374 416 356 439T295 463Q260 463 236 447T206 393L64 415Q76 460 97 490T147 538T213 564T294 572Q407 572 460 523T514 395V117Q514 87 517 58T534 0H390L374 51ZM366 256Q343 252 312 248T253 233T204 206T184 157Q184 132 196 115T235 97Q281 97 313 119T366 170V256ZM170 705Q170 729 179 750T204 787T241 812T286 822Q310 822 331 813T369 788T394 751T403 705Q403 681 394 660T369 622T332 597T286 588Q262 588 241 597T204 622T179 659T170 705ZM240 705Q240 685 253 672T286 658Q306 658 319 671T333 705Q333 725 320 738T286 752Q267 752 254 739T240 705Z"  />
<glyph unicode="&#xE6;" horiz-adv-x="875" d="M366 256Q343 252 312 248T253 233T204 206T184 157Q184 132 196 115T235 97Q272 97 308 120T372 172L366 256ZM836 162Q824 120 799 88T741 34T670 0T591 -12Q532 -12 483 10T401 81Q363 39 315 14T215 -12Q179 -12 147 0T91 33T53 85T39 154Q39 193 55 222T97 273T158 309T228 333T300 348T366 357Q374 416 356 439T295 463Q260 463 236 447T206 393L64 415Q76 460 97 490T147 538T213 564T294 572Q341 572 378 559T455 509Q487 541 523 556T591 572Q644 572 689 558T768 506T819 406T836 245H494Q492 219 498 193T519 146T555 111T606 97Q646 97 668 124T699 187L836 162ZM691 338Q691 362 686 384T670 424T640 452T595 463Q570 463 552 452T523 423T506 383T499 338H691Z"  />
<glyph unicode="&#xE7;" horiz-adv-x="558" d="M519 181Q501 93 440 41T285 -12Q224 -12 178 13T101 78T55 171T39 280Q39 336 54 388T100 482T177 547T285 572Q379 572 440 520T519 379L385 356Q381 376 376 395T359 429T331 453T285 463Q255 463 237 444T208 398T195 338T191 280Q191 254 194 222T208 162T236 116T285 97Q313 97 330 106T359 131T375 165T385 205L519 181ZM285 -232H206L231 -65H353L285 -232Z"  />
<glyph unicode="&#xE8;" horiz-adv-x="569" d="M385 338Q385 362 380 384T364 424T334 452T289 463Q264 463 246 452T217 423T200 383T193 338H385ZM188 245Q186 219 192 193T213 146T249 111T300 97Q340 97 362 124T393 187L530 162Q518 120 493 88T435 34T364 0T285 -12Q224 -12 178 13T101 78T55 171T39 280Q39 336 54 388T100 482T177 547T285 572Q338 572 383 558T462 506T513 406T530 245H188ZM355 638H263L160 778H296L355 638Z"  />
<glyph unicode="&#xE9;" horiz-adv-x="569" d="M385 338Q385 362 380 384T364 424T334 452T289 463Q264 463 246 452T217 423T200 383T193 338H385ZM188 245Q186 219 192 193T213 146T249 111T300 97Q340 97 362 124T393 187L530 162Q518 120 493 88T435 34T364 0T285 -12Q224 -12 178 13T101 78T55 171T39 280Q39 336 54 388T100 482T177 547T285 572Q338 572 383 558T462 506T513 406T530 245H188ZM274 778H410L307 638H215L274 778Z"  />
<glyph unicode="&#xEA;" horiz-adv-x="569" d="M385 338Q385 362 380 384T364 424T334 452T289 463Q264 463 246 452T217 423T200 383T193 338H385ZM188 245Q186 219 192 193T213 146T249 111T300 97Q340 97 362 124T393 187L530 162Q518 120 493 88T435 34T364 0T285 -12Q224 -12 178 13T101 78T55 171T39 280Q39 336 54 388T100 482T177 547T285 572Q338 572 383 558T462 506T513 406T530 245H188ZM472 638H337L281 701L229 638H97L214 778H350L472 638Z"  />
<glyph unicode="&#xEB;" horiz-adv-x="569" d="M385 338Q385 362 380 384T364 424T334 452T289 463Q264 463 246 452T217 423T200 383T193 338H385ZM188 245Q186 219 192 193T213 146T249 111T300 97Q340 97 362 124T393 187L530 162Q518 120 493 88T435 34T364 0T285 -12Q224 -12 178 13T101 78T55 171T39 280Q39 336 54 388T100 482T177 547T285 572Q338 572 383 558T462 506T513 406T530 245H188ZM244 630H96V778H244V630ZM473 630H325V778H473V630Z"  />
<glyph unicode="&#xEC;" horiz-adv-x="257" d="M203 0H55V560H203V0ZM201 638H109L6 778H142L201 638Z"  />
<glyph unicode="&#xED;" horiz-adv-x="257" d="M203 0H55V560H203V0ZM120 778H256L153 638H61L120 778Z"  />
<glyph unicode="&#xEE;" horiz-adv-x="257" d="M203 0H55V560H203V0ZM318 638H183L127 701L75 638H-57L60 778H196L318 638Z"  />
<glyph unicode="&#xEF;" horiz-adv-x="257" d="M203 0H55V560H203V0ZM90 630H-58V778H90V630ZM319 630H171V778H319V630Z"  />
<glyph unicode="&#xF0;" horiz-adv-x="570" d="M285 97Q315 97 333 115T362 162T375 222T379 280Q379 306 376 338T362 397T334 444T285 463Q255 463 237 444T208 398T195 338T191 280Q191 254 194 222T208 162T236 116T285 97ZM520 702L417 670Q451 630 473 589T507 509T525 432T531 364Q532 278 517 209T472 90T395 15T285 -12Q224 -12 178 13T101 78T55 171T39 280Q39 326 50 376T89 469T160 538T272 565Q299 565 324 557T376 528Q371 540 363 554T343 583T321 611T299 634L147 587L111 648L242 689Q223 706 203 721T160 750L294 778Q311 765 327 752T360 726L483 764L520 702Z"  />
<glyph unicode="&#xF1;" horiz-adv-x="566" d="M200 502Q235 531 277 551T367 572Q390 572 416 564T463 536T499 483T514 397V0H366V337Q366 354 366 374T360 411T342 441T305 453Q273 453 247 434T200 392V0H52V560H200V502ZM454 778Q455 754 449 730T429 685T394 652T346 639Q325 639 307 644T273 656T243 668T214 674Q199 674 192 664T183 639H112Q110 663 117 687T138 732T172 765T218 778Q239 778 257 773T291 762T322 750T353 745Q368 745 375 754T385 778H454Z"  />
<glyph unicode="&#xF2;" horiz-adv-x="570" d="M285 -12Q224 -12 178 13T101 78T55 171T39 280Q39 336 54 388T100 482T177 547T285 572Q346 572 392 548T469 482T515 389T531 280Q531 224 516 172T469 79T392 13T285 -12ZM285 97Q315 97 333 115T362 162T375 222T379 280Q379 306 376 338T362 397T334 444T285 463Q255 463 237 444T208 398T195 338T191 280Q191 254 194 222T208 162T236 116T285 97ZM355 638H263L160 778H296L355 638Z"  />
<glyph unicode="&#xF3;" horiz-adv-x="570" d="M285 -12Q224 -12 178 13T101 78T55 171T39 280Q39 336 54 388T100 482T177 547T285 572Q346 572 392 548T469 482T515 389T531 280Q531 224 516 172T469 79T392 13T285 -12ZM285 97Q315 97 333 115T362 162T375 222T379 280Q379 306 376 338T362 397T334 444T285 463Q255 463 237 444T208 398T195 338T191 280Q191 254 194 222T208 162T236 116T285 97ZM274 778H410L307 638H215L274 778Z"  />
<glyph unicode="&#xF4;" horiz-adv-x="570" d="M285 -12Q224 -12 178 13T101 78T55 171T39 280Q39 336 54 388T100 482T177 547T285 572Q346 572 392 548T469 482T515 389T531 280Q531 224 516 172T469 79T392 13T285 -12ZM285 97Q315 97 333 115T362 162T375 222T379 280Q379 306 376 338T362 397T334 444T285 463Q255 463 237 444T208 398T195 338T191 280Q191 254 194 222T208 162T236 116T285 97ZM473 638H338L282 701L230 638H98L215 778H351L473 638Z"  />
<glyph unicode="&#xF5;" horiz-adv-x="570" d="M285 -12Q224 -12 178 13T101 78T55 171T39 280Q39 336 54 388T100 482T177 547T285 572Q346 572 392 548T469 482T515 389T531 280Q531 224 516 172T469 79T392 13T285 -12ZM285 97Q315 97 333 115T362 162T375 222T379 280Q379 306 376 338T362 397T334 444T285 463Q255 463 237 444T208 398T195 338T191 280Q191 254 194 222T208 162T236 116T285 97ZM456 778Q457 754 451 730T431 685T396 652T348 639Q327 639 309 644T275 656T245 668T216 674Q201 674 194 664T185 639H114Q112 663 119 687T140 732T174 765T220 778Q241 778 259 773T293 762T324 750T355 745Q370 745 377 754T387 778H456Z"  />
<glyph unicode="&#xF6;" horiz-adv-x="570" d="M285 -12Q224 -12 178 13T101 78T55 171T39 280Q39 336 54 388T100 482T177 547T285 572Q346 572 392 548T469 482T515 389T531 280Q531 224 516 172T469 79T392 13T285 -12ZM285 97Q315 97 333 115T362 162T375 222T379 280Q379 306 376 338T362 397T334 444T285 463Q255 463 237 444T208 398T195 338T191 280Q191 254 194 222T208 162T236 116T285 97ZM245 630H97V778H245V630ZM474 630H326V778H474V630Z"  />
<glyph unicode="&#xF7;" horiz-adv-x="584" d="M534 192H50V301H534V192ZM234 111H349V0H234V111ZM234 493H349V382H234V493Z"  />
<glyph unicode="&#xF8;" horiz-adv-x="570" d="M363 396Q358 408 352 420T336 441T315 457T285 463Q255 463 237 444T208 398T195 338T191 280Q191 263 192 249T195 210L363 396ZM527 572L565 530L492 447Q512 410 521 368T531 280Q531 224 516 172T469 79T392 13T285 -12Q228 -12 185 9T115 62L46 -12L7 26L82 107Q60 148 50 191T39 280Q39 336 54 388T100 482T177 547T285 572Q343 572 387 550T461 492L527 572ZM214 148Q218 140 223 131T236 115T255 102T285 97Q315 97 333 115T362 162T375 222T379 280Q379 287 378 302T377 333L214 148Z"  />
<glyph unicode="&#xF9;" horiz-adv-x="566" d="M366 58Q331 29 289 9T199 -12Q176 -12 150 -4T103 24T67 77T52 163V560H200V223Q200 206 200 186T206 149T224 119T261 107Q293 107 319 126T366 168V560H514V0H366V58ZM353 638H261L158 778H294L353 638Z"  />
<glyph unicode="&#xFA;" horiz-adv-x="566" d="M366 58Q331 29 289 9T199 -12Q176 -12 150 -4T103 24T67 77T52 163V560H200V223Q200 206 200 186T206 149T224 119T261 107Q293 107 319 126T366 168V560H514V0H366V58ZM272 778H408L305 638H213L272 778Z"  />
<glyph unicode="&#xFB;" horiz-adv-x="566" d="M366 58Q331 29 289 9T199 -12Q176 -12 150 -4T103 24T67 77T52 163V560H200V223Q200 206 200 186T206 149T224 119T261 107Q293 107 319 126T366 168V560H514V0H366V58ZM471 638H336L280 701L228 638H96L213 778H349L471 638Z"  />
<glyph unicode="&#xFC;" horiz-adv-x="566" d="M366 58Q331 29 289 9T199 -12Q176 -12 150 -4T103 24T67 77T52 163V560H200V223Q200 206 200 186T206 149T224 119T261 107Q293 107 319 126T366 168V560H514V0H366V58ZM243 630H95V778H243V630ZM472 630H324V778H472V630Z"  />
<glyph unicode="&#xFD;" horiz-adv-x="528" d="M312 -45Q298 -83 284 -113T248 -163T197 -195T122 -206Q76 -206 27 -195V-68Q44 -74 58 -78T91 -82Q116 -82 133 -75T163 -56T184 -26T200 14L0 560H160L273 191L376 560H528L312 -45ZM253 778H389L286 638H194L253 778Z"  />
<glyph unicode="&#xFE;" horiz-adv-x="584" d="M202 505Q233 533 264 552T340 572Q370 572 406 558T473 511T524 425T545 294Q545 205 527 147T479 53T410 3T328 -12Q293 -12 263 2T202 40V-191H54V778H202V505ZM202 163Q219 137 242 117T298 97Q331 97 351 115T382 160T396 218T400 274Q400 297 396 326T381 380T351 423T301 440Q269 440 246 421T202 379V163Z"  />
<glyph unicode="&#xFF;" horiz-adv-x="528" d="M312 -45Q298 -83 284 -113T248 -163T197 -195T122 -206Q76 -206 27 -195V-68Q44 -74 58 -78T91 -82Q116 -82 133 -75T163 -56T184 -26T200 14L0 560H160L273 191L376 560H528L312 -45ZM226 630H78V778H226V630ZM455 630H307V778H455V630Z"  />
<glyph unicode="&#x131;" horiz-adv-x="257" d="M203 0H55V560H203V0Z"  />
<glyph unicode="&#x152;" horiz-adv-x="1072" d="M523 52Q483 20 443 4T360 -12Q277 -12 217 23T117 115T58 243T39 389Q39 462 58 534T116 663T216 755T360 790Q404 790 443 775T523 729V778H1007V646H670V460H951V328H670V132H1026V0H523V52ZM360 667Q310 667 279 638T230 566T206 475T199 389Q199 351 205 303T229 213T278 141T360 111Q410 111 441 140T490 212T514 303T521 389Q521 426 515 474T491 565T442 637T360 667Z"  />
<glyph unicode="&#x153;" horiz-adv-x="908" d="M285 97Q319 97 339 114T371 159T387 217T391 277Q391 304 387 336T372 397T340 444T285 463Q255 463 237 444T208 398T195 338T191 280Q191 254 194 222T208 162T236 116T285 97ZM527 245Q525 219 531 193T552 146T588 111T639 97Q679 97 701 124T732 187L869 162Q857 120 832 88T774 34T703 0T624 -12Q576 -12 532 8T456 68Q424 27 380 8T285 -12Q224 -12 178 13T101 78T55 171T39 280Q39 336 54 388T100 482T177 547T285 572Q335 572 382 552T462 492Q494 532 538 551T624 572Q677 572 722 558T801 506T852 406T869 245H527ZM724 338Q724 362 719 384T703 424T673 452T628 463Q603 463 585 452T556 423T539 383T532 338H724Z"  />
<glyph unicode="&#x160;" horiz-adv-x="617" d="M417 549Q411 569 403 588T381 623T351 648T309 658Q290 658 273 652T242 633T222 605T214 568Q214 530 241 510T309 476T397 448T485 409T553 340T580 225Q580 189 566 148T520 71T438 12T316 -12Q205 -12 130 43T37 212L193 235Q198 210 207 189T231 153T266 129T315 120Q361 120 394 144T427 219Q427 258 400 279T332 315T244 343T156 381T88 444T61 550Q61 602 81 646T137 722T217 772T314 790Q363 790 405 775T480 731T533 663T558 574L417 549ZM374 856H238L121 996H253L305 933L361 996H496L374 856Z"  />
<glyph unicode="&#x161;" horiz-adv-x="487" d="M309 396Q304 425 291 444T245 463Q219 463 202 446T185 401Q185 377 205 365T255 344T320 326T386 298T436 249T456 165Q456 120 439 87T392 32T325 -1T243 -12Q156 -12 104 30T40 160L179 175Q181 145 197 121T248 97Q276 97 298 111T320 157Q320 181 300 193T250 213T185 230T119 257T69 306T49 393Q49 435 66 468T111 525T177 560T255 572Q292 572 324 561T382 529T425 479T449 413L309 396ZM311 638H175L58 778H190L242 715L298 778H433L311 638Z"  />
<glyph unicode="&#x178;" horiz-adv-x="653" d="M403 314V0H247V314L-8 778H158L326 436L500 778H661L403 314ZM286 848H138V996H286V848ZM515 848H367V996H515V848Z"  />
<glyph unicode="&#x17D;" horiz-adv-x="569" d="M538 652L210 132H538V0H31V122L359 646H42V778H538V652ZM350 856H214L97 996H229L281 933L337 996H472L350 856Z"  />
<glyph unicode="&#x17E;" horiz-adv-x="524" d="M485 455L224 117H485V0H39V100L296 443H56V560H485V455ZM330 638H194L77 778H209L261 715L317 778H452L330 638Z"  />
<glyph unicode="&#x192;" horiz-adv-x="622" d="M491 358H393L355 2Q349 -51 342 -87T315 -147T262 -180T168 -191H82V-59H112Q140 -59 157 -60T185 -56T201 -36T209 11L245 358H168V469H257L269 585Q274 634 285 670T318 731T372 766T454 778H541V646H460Q451 646 444 646T432 643T424 627T417 589L405 469H491V358Z"  />
<glyph unicode="&#x2C6;" horiz-adv-x="531" d="M453 638H318L262 701L210 638H78L195 778H331L453 638Z"  />
<glyph unicode="&#x2C7;" horiz-adv-x="531" d="M331 638H195L78 778H210L262 715L318 778H453L331 638Z"  />
<glyph unicode="&#x2DA;" horiz-adv-x="389" d="M78 705Q78 729 87 750T112 787T149 812T194 822Q218 822 239 813T277 788T302 751T311 705Q311 681 302 660T277 622T240 597T194 588Q170 588 149 597T112 622T87 659T78 705ZM148 705Q148 685 161 672T194 658Q214 658 227 671T241 705Q241 725 228 738T194 752Q175 752 162 739T148 705Z"  />
<glyph unicode="&#x2DC;" horiz-adv-x="498" d="M420 778Q421 754 415 730T395 685T360 652T312 639Q291 639 273 644T239 656T209 668T180 674Q165 674 158 664T149 639H78Q76 663 83 687T104 732T138 765T184 778Q205 778 223 773T257 762T288 750T319 745Q334 745 341 754T351 778H420Z"  />
<glyph unicode="&#x2013;" horiz-adv-x="500" d="M500 358V234H0V358H500Z"  />
<glyph unicode="&#x2014;" horiz-adv-x="1000" d="M1000 358V234H0V358H1000Z"  />
<glyph unicode="&#x2018;" horiz-adv-x="224" d="M38 626L123 790L184 764L135 632H186V484H38V626Z"  />
<glyph unicode="&#x2019;" horiz-adv-x="224" d="M186 636L101 472L40 498L89 630H38V778H186V636Z"  />
<glyph unicode="&#x201A;" horiz-adv-x="224" d="M186 6L101 -158L40 -132L89 0H38V148H186V6Z"  />
<glyph unicode="&#x201C;" horiz-adv-x="409" d="M223 626L308 790L369 764L320 632H371V484H223V626ZM38 626L123 790L184 764L135 632H186V484H38V626Z"  />
<glyph unicode="&#x201D;" horiz-adv-x="409" d="M186 636L101 472L40 498L89 630H38V778H186V636ZM371 636L286 472L225 498L274 630H223V778H371V636Z"  />
<glyph unicode="&#x201E;" horiz-adv-x="409" d="M186 6L101 -158L40 -132L89 0H38V148H186V6ZM371 6L286 -158L225 -132L274 0H223V148H371V6Z"  />
<glyph unicode="&#x2020;" horiz-adv-x="622" d="M385 560H567V437H385V-191H237V437H55V560H237V778H385V560Z"  />
<glyph unicode="&#x2021;" horiz-adv-x="622" d="M385 587H567V464H385V123H567V0H385V-191H237V0H55V123H237V464H55V587H237V778H385V587Z"  />
<glyph unicode="&#x2022;" horiz-adv-x="453" d="M414 385Q414 346 399 312T359 252T299 212T226 197Q187 197 153 211T94 251T54 311T39 385Q38 424 52 458T92 517T152 557T226 572Q265 572 299 558T358 518T399 458T414 385Z"  />
<glyph unicode="&#x2026;" horiz-adv-x="1000" d="M241 0H93V148H241V0ZM574 0H426V148H574V0ZM907 0H759V148H907V0Z"  />
<glyph unicode="&#x2030;" horiz-adv-x="1249" d="M656 389Q705 389 737 371T789 324T815 257T823 182Q823 145 814 110T785 48T733 5T656 -12Q611 -12 579 4T527 48T498 110T489 182Q489 220 496 257T523 323T574 371T656 389ZM656 299Q636 299 626 288T610 260T605 223T604 182Q604 164 605 146T612 112T627 88T656 78Q674 78 684 87T700 112T706 145T708 182Q708 202 708 222T702 260T687 288T656 299ZM196 790Q245 790 277 772T329 725T355 658T363 583Q363 546 354 511T325 449T273 406T196 389Q151 389 119 405T67 449T38 511T29 583Q29 621 36 658T63 724T114 772T196 790ZM196 700Q176 700 166 689T150 661T145 624T144 583Q144 565 145 547T152 513T167 489T196 479Q214 479 224 488T240 513T246 546T248 583Q248 603 248 623T242 661T227 689T196 700ZM1053 389Q1102 389 1134 371T1186 324T1212 257T1220 182Q1220 145 1211 110T1182 48T1130 5T1053 -12Q1008 -12 976 4T924 48T895 110T886 182Q886 220 893 257T920 323T971 371T1053 389ZM1053 299Q1033 299 1023 288T1007 260T1002 223T1001 182Q1001 164 1002 146T1009 112T1024 88T1053 78Q1071 78 1081 87T1097 112T1103 145T1105 182Q1105 202 1105 222T1099 260T1084 288T1053 299ZM670 778L276 0H182L576 778H670Z"  />
<glyph unicode="&#x2039;" horiz-adv-x="279" d="M39 296L131 519H240L156 296L240 73H131L39 296Z"  />
<glyph unicode="&#x203A;" horiz-adv-x="279" d="M148 73H39L123 296L39 519H148L240 296L148 73Z"  />
<glyph unicode="&#x20AC;" horiz-adv-x="622" d="M573 615Q554 633 517 648T420 663Q347 663 307 628T255 526H538L502 423H241Q240 416 240 409T240 393Q240 383 240 374T241 357H478L442 254H255Q278 114 422 114Q478 114 515 128T573 161V25Q557 13 514 1T400 -11Q284 -11 209 52T111 254H20L56 357H100Q99 364 99 372T99 392Q99 401 99 408T100 423H20L56 526H110Q120 586 142 634T200 717T285 770T400 789Q463 789 508 776T573 750V615Z"  />
<glyph unicode="&#x2122;" horiz-adv-x="1000" d="M919 374H819V648H817L716 374H656L555 648H553V374H453V778H595L686 549L777 778H919V374ZM404 690H285V374H180V690H61V778H404V690Z"  />

<hkern u1="A" u2="T" k="60" />
<hkern u1="A" u2="V" k="20" />
<hkern u1="A" u2="Y" k="70" />
<hkern u1="A" u2="&#xfc;" k="30" />
<hkern u1="F" u2="&#x2c;" k="120" />
<hkern u1="F" u2="." k="120" />
<hkern u1="F" u2="A" k="50" />
<hkern u1="L" u2="T" k="138" />
<hkern u1="L" u2="V" k="83" />
<hkern u1="L" u2="W" k="22" />
<hkern u1="L" u2="Y" k="127" />
<hkern u1="L" u2="y" k="15" />
<hkern u1="L" u2="&#xfc;" k="50" />
<hkern u1="P" u2="&#x2c;" k="120" />
<hkern u1="P" u2="." k="120" />
<hkern u1="P" u2="A" k="48" />
<hkern u1="R" u2="V" k="20" />
<hkern u1="R" u2="W" k="-10" />
<hkern u1="R" u2="Y" k="30" />
<hkern u1="R" u2="y" k="-20" />
<hkern u1="T" u2="&#x2c;" k="100" />
<hkern u1="T" u2="-" k="100" />
<hkern u1="T" u2="." k="100" />
<hkern u1="T" u2=":" k="20" />
<hkern u1="T" u2=";" k="30" />
<hkern u1="T" u2="A" k="60" />
<hkern u1="T" u2="a" k="100" />
<hkern u1="T" u2="c" k="100" />
<hkern u1="T" u2="e" k="100" />
<hkern u1="T" u2="o" k="100" />
<hkern u1="T" u2="r" k="75" />
<hkern u1="T" u2="s" k="85" />
<hkern u1="T" u2="u" k="75" />
<hkern u1="T" u2="w" k="60" />
<hkern u1="T" u2="y" k="60" />
<hkern u1="T" u2="&#xd3;" k="50" />
<hkern u1="T" u2="&#xd5;" k="50" />
<hkern u1="T" u2="&#xd6;" k="50" />
<hkern u1="T" u2="&#xd8;" k="50" />
<hkern u1="T" u2="&#xdb;" k="75" />
<hkern u1="T" u2="&#xe4;" k="50" />
<hkern u1="T" u2="&#xe8;" k="50" />
<hkern u1="T" u2="&#xee;" k="38" />
<hkern u1="T" u2="&#x20ac;" k="21" />
<hkern u1="T" u2="&#xd7;" k="25" />
<hkern u1="T" u2="&#xdd;" k="75" />
<hkern u1="T" u2="&#xde;" k="50" />
<hkern u1="V" u2="&#x2c;" k="60" />
<hkern u1="V" u2="-" k="20" />
<hkern u1="V" u2="." k="60" />
<hkern u1="V" u2=";" k="-20" />
<hkern u1="V" u2="a" k="45" />
<hkern u1="V" u2="e" k="40" />
<hkern u1="V" u2="i" k="-10" />
<hkern u1="V" u2="o" k="40" />
<hkern u1="V" u2="&#xd3;" k="23" />
<hkern u1="V" u2="&#xd5;" k="23" />
<hkern u1="V" u2="&#xd6;" k="23" />
<hkern u1="V" u2="&#xd8;" k="23" />
<hkern u1="V" u2="&#xdb;" k="20" />
<hkern u1="V" u2="&#xe6;" k="30" />
<hkern u1="V" u2="&#xe8;" k="20" />
<hkern u1="V" u2="&#xd7;" k="23" />
<hkern u1="V" u2="&#xdd;" k="20" />
<hkern u1="V" u2="&#xde;" k="20" />
<hkern u1="W" u2="&#x2c;" k="60" />
<hkern u1="W" u2="." k="60" />
<hkern u1="W" u2="a" k="35" />
<hkern u1="W" u2="e" k="30" />
<hkern u1="W" u2="i" k="-10" />
<hkern u1="W" u2="o" k="30" />
<hkern u1="W" u2="r" k="15" />
<hkern u1="W" u2="u" k="15" />
<hkern u1="W" u2="y" k="-15" />
<hkern u1="W" u2="&#xe8;" k="23" />
<hkern u1="W" u2="&#xee;" k="11" />
<hkern u1="W" u2="&#xd7;" k="26" />
<hkern u1="W" u2="&#xdd;" k="23" />
<hkern u1="Y" u2="&#x2c;" k="120" />
<hkern u1="Y" u2="-" k="80" />
<hkern u1="Y" u2="." k="120" />
<hkern u1="Y" u2=":" k="50" />
<hkern u1="Y" u2=";" k="50" />
<hkern u1="Y" u2="A" k="70" />
<hkern u1="Y" u2="a" k="121" />
<hkern u1="Y" u2="e" k="124" />
<hkern u1="Y" u2="i" k="5" />
<hkern u1="Y" u2="o" k="124" />
<hkern u1="Y" u2="p" k="80" />
<hkern u1="Y" u2="q" k="124" />
<hkern u1="Y" u2="u" k="80" />
<hkern u1="Y" u2="v" k="70" />
<hkern u1="Y" u2="&#xe8;" k="93" />
<hkern u1="Y" u2="&#xee;" k="60" />
<hkern u1="f" u2="f" k="-20" />
<hkern u1="f" u2="&#xfc;" k="-35" />
<hkern u1="r" u2="&#x2c;" k="100" />
<hkern u1="r" u2="-" k="20" />
<hkern u1="r" u2="." k="100" />
<hkern u1="r" u2="c" k="20" />
<hkern u1="r" u2="d" k="20" />
<hkern u1="r" u2="e" k="20" />
<hkern u1="r" u2="f" k="-20" />
<hkern u1="r" u2="g" k="30" />
<hkern u1="r" u2="o" k="30" />
<hkern u1="r" u2="q" k="20" />
<hkern u1="r" u2="t" k="-20" />
<hkern u1="r" u2="v" k="-10" />
<hkern u1="r" u2="w" k="-10" />
<hkern u1="r" u2="z" k="5" />
<hkern u1="v" u2="&#x2c;" k="60" />
<hkern u1="v" u2="." k="60" />
<hkern u1="w" u2="&#x2c;" k="50" />
<hkern u1="w" u2="." k="50" />
<hkern u1="y" u2="&#x2c;" k="70" />
<hkern u1="y" u2="." k="70" />
<hkern u1="&#xfc;" u2="s" k="75" />

</font>
</defs>
<text x="40" y="40" font-family="News Gothic W01 Bold" font-size="30" fill="#933" >ABCDEFGHIJKLMNOPQRSTUVWXYZ abcdefghijklmnopqrstuvwxyz AÁÀÂÄÅÃÆ CÇ DÐ EÉÈÊË I Í Ì Î Ï NÑ</text>
<text x="40" y="80" font-family="News Gothic W01 Bold" font-size="30" fill="#933" >OÓÒÔÖÕØŒ SŠ UÚÙÛÜ YÝŸ ZŽ Þ aáàâäåãæ cç dð eéèêë i ı í ì î ï nñ oóòôöõøœ sšß uúùûü yýÿ zž</text>
<text x="40" y="120" font-family="News Gothic W01 Bold" font-size="30" fill="#933" >þ 1234567890 ½ ¼ ¾ % ‰ $¢£¥ƒ€¤ † ‡ § ¶ # ^~µ +×± &lt; = &gt; ÷¬ !¡?¿ &quot; &amp; &apos; * ° . , : ; () [ \ ] {} / |</text>
<text x="40" y="160" font-family="News Gothic W01 Bold" font-size="30" fill="#933" >¦ _ ‚ „ … ‹› «» ‘ ’ “ ” • ­ - – — @ © ® ™ ªº ¹²³ ´ ` ˆ ˜ ¨ ¯ · ¸</text>
</svg>
